<svg width="64" height="64" viewBox="0 0 64 64" xmlns="http://www.w3.org/2000/svg">
  <path d="M32 0C14.314 0 0 14.336 0 32s14.336 32 32 32 32-14.336 32-32S49.686 0 32 0zm3.886 18.378l6.9 10.764-6.945.022.045-10.786zM32.089 5.203c.179.201 2.345 2.635 3.149 8.04a17.74 17.74 0 0 1-3.149.29 20.109 20.109 0 0 1-3.148-.29c.781-5.405 2.97-7.861 3.148-8.04zM10.14 42.54h6.52c2.568 0 4.622-2.054 4.622-4.578l-.067-6.409h3.26v7.437c0 .022-.066 1.473-.468 2.233-.804 1.496-1.876 2.635-3.283 3.483-1.54.938-2.925 1.117-4.913 1.117h-5.672V42.54zm6.52 6.9h-6.52v-3.193h5.671c2.077 0 3.506-.179 5.136-1.183 1.474-.894 2.59-2.1 3.417-3.64.446-.827.513-2.345.513-2.412v-7.436h3.305v6.409c-.022 6.32-5.18 11.455-11.522 11.455zm11.5-20.276l-6.967-.022 7.056-10.764-.089 10.786zm3.93 7.146s-1.34-1.675-1.518-4.556c.558.045 1.139.067 1.72.067.401 0 .803-.022 1.183-.022-.045 2.68-1.385 4.51-1.385 4.51zm.157-4.913c-1.273 0-2.524-.112-3.663-.313v-1.496a21.305 21.305 0 0 0 6.878.067v1.496c-1.027.157-2.099.246-3.215.246zm3.215-2.188c-1.072.2-2.233.29-3.439.312-1.183-.022-2.367-.111-3.439-.312 0-3.752.067-11.947.067-11.97 0-1.317.09-2.523.224-3.617.982.178 2.076.29 3.193.29 1.117-.022 2.21-.112 3.193-.29.134 1.094.224 2.278.224 3.617.022 0-.045 8.218-.023 11.97zm18.4 20.231h-6.52C41 49.44 35.82 44.304 35.82 37.962v-6.409h3.305v7.437c0 .067.067 1.585.513 2.411a9.256 9.256 0 0 0 3.417 3.64c1.608.983 3.059 1.184 5.136 1.184h5.672v3.215zm0-3.595h-5.649c-2.01 0-3.394-.179-4.913-1.116-1.406-.849-2.478-2.01-3.282-3.484-.402-.76-.47-2.233-.47-2.233v-7.436h3.261l-.067 6.409c0 2.523 2.055 4.577 4.623 4.577h6.52v3.283h-.022z" fill="#FFF" fill-rule="nonzero"/>
</svg>
